%!PS-Adobe-3.0 EPSF-3.0 
%%BoundingBox: 0 0 557 735
%%Pages: 0
%%Creator: Sun Microsystems, Inc.
%%Title: none
%%CreationDate: none
%%LanguageLevel: 2
%%EndComments
%%BeginProlog
%%BeginResource: procset SDRes-Prolog 1.0 0
/b4_inc_state save def
/dict_count countdictstack def
/op_count count 1 sub def
userdict begin
0 setgray 0 setlinecap 1 setlinewidth 0 setlinejoin 10 setmiterlimit[] 0 setdash newpath
/languagelevel where {pop languagelevel 1 ne {false setstrokeadjust false setoverprint} if} if
/bdef {bind def} bind def
/c {setrgbcolor} bdef
/l {neg lineto} bdef
/rl {neg rlineto} bdef
/lc {setlinecap} bdef
/lj {setlinejoin} bdef
/lw {setlinewidth} bdef
/ml {setmiterlimit} bdef
/ld {setdash} bdef
/m {neg moveto} bdef
/ct {6 2 roll neg 6 2 roll neg 6 2 roll neg curveto} bdef
/r {rotate} bdef
/t {neg translate} bdef
/s {scale} bdef
/sw {show} bdef
/gs {gsave} bdef
/gr {grestore} bdef
/f {findfont dup length dict begin
{1 index /FID ne {def} {pop pop} ifelse} forall /Encoding ISOLatin1Encoding def
currentdict end /NFont exch definefont pop /NFont findfont} bdef
/p {closepath} bdef
/sf {scalefont setfont} bdef
/ef {eofill}bdef
/pc {closepath stroke}bdef
/ps {stroke}bdef
/pum {matrix currentmatrix}bdef
/pom {setmatrix}bdef
/bs {/aString exch def /nXOfs exch def /nWidth exch def currentpoint nXOfs 0 rmoveto pum nWidth aString stringwidth pop div 1 scale aString show pom moveto} bdef
%%EndResource
%%EndProlog
%%BeginSetup
%%EndSetup
%%Page: 1 1
%%BeginPageSetup
%%EndPageSetup
pum
0.02833 0.02833 s 
0 -25940 t
/tm matrix currentmatrix def
gs
tm setmatrix
-686 -1000 t 
1 1 s 
686 1000 m 20344 1000 l 20344 26939 l 686 26939 l 686 1000 l eoclip newpath
gs
0 0 m 19658 0 l 19658 25939 l 0 25939 l 0 0 l eoclip newpath
0 lw 1 lj 0.003 0.003 0.003 c 8352 10073 m  8352 15661 l  ps
9150 10088 m  9150 15661 l  ps
9948 10073 m  9948 15661 l  ps
10747 10088 m  10747 15661 l  ps
11545 10057 m  11545 15646 l  ps
12359 10073 m  12359 15646 l  ps
13157 10073 m  13157 15676 l  ps
13940 10073 m  13956 15661 l  ps
8374 15665 m  13956 15661 l  ps
8375 14865 m  13956 14863 l  ps
8376 14065 m  13971 14064 l  ps
8377 13265 m  13956 13266 l  ps
8378 12465 m  13956 12468 l  ps
8379 11665 m  13971 11669 l  ps
8380 10865 m  13940 10871 l  ps
8381 10065 m  13956 10073 l  ps

gs
tm setmatrix
9646.51162 7944.61538 t 
1.58139 1.53846 s 
gs
gs
pum
22 300 t
24 -5 m  24 -6 24 -7 24 -8 ct 48 -102 l  49 -107 50 -113 50 -117 ct 50 -126 47 -130 41 -130 ct 
34 -130 29 -126 26 -119 ct 23 -111 20 -101 17 -89 ct 17 -88 17 -88 16 -87 ct 16 -87 15 -87 15 -87 ct 
11 -87 l  10 -87 10 -87 9 -88 ct 9 -89 8 -90 8 -90 ct 11 -99 13 -107 15 -114 ct 
17 -120 20 -126 25 -131 ct 29 -136 35 -139 41 -139 ct 49 -139 56 -137 62 -132 ct 
68 -126 71 -120 71 -112 ct 78 -121 85 -127 93 -132 ct 102 -137 111 -139 120 -139 ct 
127 -139 134 -138 139 -135 ct 145 -133 149 -129 152 -124 ct 155 -118 157 -112 157 -105 ct 
157 -96 155 -86 151 -74 ct 147 -62 142 -48 136 -33 ct 133 -26 132 -20 132 -14 ct 
132 -7 134 -4 139 -4 ct 147 -4 154 -9 159 -18 ct 165 -26 169 -36 171 -46 ct 172 -47 172 -48 174 -48 ct 
177 -48 l  178 -48 179 -47 179 -47 ct 180 -46 180 -46 180 -45 ct 180 -45 180 -44 180 -44 ct 
177 -32 172 -21 165 -11 ct 158 -1 149 4 138 4 ct 131 4 125 2 119 -3 ct 114 -8 112 -15 112 -22 ct 
112 -26 112 -30 114 -34 ct 117 -41 120 -49 123 -59 ct 126 -68 129 -77 131 -86 ct 
134 -95 135 -103 135 -109 ct 135 -115 134 -120 131 -124 ct 129 -128 125 -130 119 -130 ct 
111 -130 104 -129 98 -125 ct 91 -122 86 -117 81 -112 ct 76 -106 72 -100 68 -92 ct 
47 -6 l  46 -3 44 -1 42 1 ct 39 3 36 4 33 4 ct 31 4 29 4 27 2 ct 25 0 24 -2 24 -5 ct 
p ef
pom
pum
209 172 t
60 0 m  11 0 l  11 -9 l  16 -9 20 -9 23 -10 ct 26 -11 27 -13 27 -16 ct 27 -129 l 
27 -134 26 -138 24 -139 ct 22 -140 17 -141 11 -141 ct 11 -150 l  44 -152 l  44 -49 l 
75 -73 l  79 -76 81 -79 81 -82 ct 81 -83 80 -83 80 -84 ct 79 -85 78 -85 77 -85 ct 
77 -94 l  119 -94 l  119 -85 l  109 -85 99 -81 88 -73 ct 71 -59 l  101 -22 l 
105 -16 109 -13 112 -12 ct 114 -10 119 -9 125 -9 ct 125 0 l  80 0 l  80 -9 l 
84 -9 86 -10 86 -13 ct 86 -15 84 -18 81 -22 ct 58 -50 l  43 -38 l  43 -16 l 
43 -13 45 -11 48 -10 ct 51 -9 55 -9 60 -9 ct 60 0 l  p ef
pom
pum
331 172 t
9 -48 m  9 -55 10 -61 13 -67 ct 16 -73 19 -78 24 -83 ct 29 -88 34 -91 40 -94 ct 
47 -96 53 -97 60 -97 ct 67 -97 73 -96 78 -94 ct 84 -92 88 -89 92 -85 ct 96 -81 98 -77 100 -71 ct 
102 -66 103 -59 103 -52 ct 103 -50 103 -49 101 -49 ct 29 -49 l  29 -47 l  29 -36 32 -26 38 -19 ct 
44 -11 53 -8 65 -8 ct 72 -8 78 -9 84 -13 ct 89 -16 93 -21 95 -27 ct 95 -27 96 -28 98 -28 ct 
101 -28 l  103 -28 103 -27 103 -26 ct 103 -26 103 -26 103 -26 ct 101 -17 96 -11 88 -6 ct 
80 -1 72 2 63 2 ct 54 2 45 -1 37 -5 ct 28 -9 22 -15 17 -23 ct 12 -30 9 -39 9 -48 ct 
p
29 -56 m  87 -56 l  87 -62 86 -67 84 -72 ct 82 -78 78 -82 74 -85 ct 70 -88 65 -90 59 -90 ct 
53 -90 48 -88 43 -85 ct 39 -82 35 -77 33 -72 ct 30 -67 29 -62 29 -56 ct p ef
pom
pum
444 172 t
26 -27 m  26 -85 l  6 -85 l  6 -92 l  13 -92 18 -95 23 -99 ct 27 -103 30 -109 33 -115 ct 
35 -122 36 -128 36 -135 ct 44 -135 l  44 -94 l  79 -94 l  79 -85 l  44 -85 l 
44 -28 l  44 -22 45 -18 47 -14 ct 50 -10 54 -8 59 -8 ct 63 -8 66 -9 68 -11 ct 70 -13 72 -15 73 -19 ct 
74 -22 75 -25 75 -28 ct 75 -41 l  82 -41 l  82 -27 l  82 -22 81 -18 79 -13 ct 
77 -9 74 -5 70 -3 ct 66 0 62 2 57 2 ct 48 2 40 -1 35 -6 ct 29 -11 26 -18 26 -27 ct 
p ef
pom
pum
644 300 t
218 -41 m  23 -41 l  22 -41 20 -42 19 -43 ct 18 -45 17 -46 17 -48 ct 17 -50 18 -51 19 -52 ct 
20 -54 22 -54 23 -54 ct 218 -54 l  220 -54 221 -54 222 -52 ct 223 -51 224 -50 224 -48 ct 
224 -46 223 -45 222 -43 ct 221 -42 220 -41 218 -41 ct p
218 -102 m  23 -102 l  22 -102 20 -103 19 -104 ct 18 -105 17 -107 17 -109 ct 
17 -110 18 -112 19 -113 ct 20 -115 22 -115 23 -115 ct 218 -115 l  220 -115 221 -115 222 -113 ct 
223 -112 224 -110 224 -109 ct 224 -107 223 -105 222 -104 ct 221 -103 220 -102 218 -102 ct 
p ef
pom
pum
975 300 t
54 -8 m  54 -20 55 -31 57 -42 ct 59 -53 62 -64 66 -75 ct 70 -86 75 -97 81 -107 ct 
86 -117 92 -127 99 -136 ct 127 -176 l  92 -176 l  55 -176 36 -176 34 -175 ct 
32 -171 29 -162 27 -146 ct 18 -146 l  28 -212 l  37 -212 l  37 -211 l  37 -207 43 -205 56 -204 ct 
69 -203 81 -202 94 -202 ct 152 -202 l  152 -194 l  152 -194 152 -193 152 -193 ct 
152 -193 152 -193 151 -193 ct 109 -132 l  98 -117 91 -99 89 -80 ct 86 -61 85 -37 85 -8 ct 
85 -4 83 -1 80 2 ct 77 5 74 7 70 7 ct 65 7 62 5 59 2 ct 56 -1 54 -4 54 -8 ct p ef
pom
gr
gr
gr
8153 10040 m  8056 10040 7960 10274 7960 10509 ct 7960 12388 l  7960 12623 7864 12858 7768 12858 ct 
7864 12858 7960 13092 7960 13327 ct 7960 15206 l  7960 15441 8056 15676 8153 15676 ct 
ps
14041 9932 m  14041 9835 13807 9739 13572 9739 ct 11693 9739 l  11458 9739 11223 9643 11223 9547 ct 
11223 9643 10989 9739 10754 9739 ct 8875 9739 l  8640 9739 8405 9835 8405 9932 ct 
ps

gs
tm setmatrix
6376.92307 10862.72727 t 
1.53846 1.5909 s 
gs
gs
pum
300 1165 t
90.0 r 24 -5 m  24 -6 24 -7 24 -8 ct 48 -102 l  49 -107 50 -113 50 -117 ct 50 -126 47 -130 41 -130 ct 
34 -130 29 -126 26 -119 ct 23 -111 20 -101 17 -89 ct 17 -88 17 -88 16 -87 ct 16 -87 15 -87 15 -87 ct 
11 -87 l  10 -87 10 -87 9 -88 ct 9 -89 8 -90 8 -90 ct 11 -99 13 -107 15 -114 ct 
17 -120 20 -126 25 -131 ct 29 -136 35 -139 41 -139 ct 49 -139 56 -137 62 -132 ct 
68 -126 71 -120 71 -112 ct 78 -121 85 -127 93 -132 ct 102 -137 111 -139 120 -139 ct 
127 -139 134 -138 139 -135 ct 145 -133 149 -129 152 -124 ct 155 -118 157 -112 157 -105 ct 
157 -96 155 -86 151 -74 ct 147 -62 142 -48 136 -33 ct 133 -26 132 -20 132 -14 ct 
132 -7 134 -4 139 -4 ct 147 -4 154 -9 159 -18 ct 165 -26 169 -36 171 -46 ct 172 -47 172 -48 174 -48 ct 
177 -48 l  178 -48 179 -47 179 -47 ct 180 -46 180 -46 180 -45 ct 180 -45 180 -44 180 -44 ct 
177 -32 172 -21 165 -11 ct 158 -1 149 4 138 4 ct 131 4 125 2 119 -3 ct 114 -8 112 -15 112 -22 ct 
112 -26 112 -30 114 -34 ct 117 -41 120 -49 123 -59 ct 126 -68 129 -77 131 -86 ct 
134 -95 135 -103 135 -109 ct 135 -115 134 -120 131 -124 ct 129 -128 125 -130 119 -130 ct 
111 -130 104 -129 98 -125 ct 91 -122 86 -117 81 -112 ct 76 -106 72 -100 68 -92 ct 
47 -6 l  46 -3 44 -1 42 1 ct 39 3 36 4 33 4 ct 31 4 29 4 27 2 ct 25 0 24 -2 24 -5 ct 
p ef
pom
pum
172 978 t
90.0 r 36 0 m  27 0 l  27 -129 l  27 -134 26 -138 24 -139 ct 22 -140 17 -141 11 -141 ct 
11 -150 l  45 -152 l  45 -84 l  49 -88 54 -92 60 -94 ct 66 -96 72 -97 78 -97 ct 
85 -97 91 -96 97 -94 ct 103 -91 108 -87 113 -83 ct 118 -78 121 -73 124 -67 ct 126 -61 128 -55 128 -48 ct 
128 -39 125 -30 120 -23 ct 115 -15 109 -9 101 -5 ct 93 -1 84 2 75 2 ct 71 2 67 1 63 0 ct 
59 -2 56 -3 52 -6 ct 49 -8 46 -11 43 -14 ct 36 0 l  p
46 -74 m  46 -24 l  48 -18 52 -14 57 -11 ct 62 -8 68 -6 74 -6 ct 80 -6 85 -7 89 -9 ct 
94 -12 97 -15 100 -19 ct 103 -23 105 -27 106 -32 ct 107 -37 108 -42 108 -48 ct 
108 -55 107 -62 105 -68 ct 103 -75 100 -80 95 -84 ct 90 -88 84 -90 76 -90 ct 70 -90 64 -88 59 -86 ct 
53 -83 49 -79 46 -74 ct p ef
pom
pum
172 840 t
90.0 r 65 0 m  11 0 l  11 -9 l  16 -9 20 -9 23 -10 ct 26 -11 27 -12 27 -15 ct 
27 -74 l  27 -79 26 -83 24 -84 ct 22 -85 17 -86 11 -86 ct 11 -95 l  43 -97 l 
43 -75 l  45 -81 49 -87 54 -91 ct 59 -95 65 -97 72 -97 ct 76 -97 80 -96 84 -93 ct 
87 -91 89 -87 89 -83 ct 89 -80 88 -77 86 -75 ct 84 -73 81 -72 79 -72 ct 76 -72 73 -73 71 -75 ct 
69 -77 68 -79 68 -82 ct 68 -85 69 -88 71 -90 ct 65 -90 60 -88 56 -84 ct 52 -79 49 -74 47 -68 ct 
45 -62 44 -56 44 -50 ct 44 -15 l  44 -11 51 -9 65 -9 ct 65 0 l  p ef
pom
pum
172 743 t
90.0 r 11 -23 m  11 -30 13 -36 18 -41 ct 23 -46 29 -49 36 -52 ct 43 -55 51 -57 59 -58 ct 
67 -59 74 -59 81 -59 ct 81 -67 l  81 -71 79 -75 77 -78 ct 75 -82 72 -85 68 -87 ct 
64 -89 60 -90 56 -90 ct 47 -90 40 -89 36 -87 ct 37 -86 39 -85 40 -83 ct 41 -82 41 -80 41 -78 ct 
41 -76 41 -74 40 -73 ct 39 -71 37 -70 36 -69 ct 34 -69 32 -68 31 -68 ct 27 -68 25 -69 23 -71 ct 
21 -73 20 -75 20 -78 ct 20 -91 32 -97 56 -97 ct 60 -97 65 -97 70 -95 ct 76 -94 80 -92 85 -90 ct 
89 -87 92 -84 95 -80 ct 98 -77 99 -72 99 -67 ct 99 -19 l  99 -16 100 -14 101 -12 ct 
102 -10 104 -9 106 -9 ct 109 -9 111 -10 112 -12 ct 113 -14 114 -16 114 -18 ct 114 -31 l 
122 -31 l  122 -18 l  122 -13 119 -8 115 -5 ct 110 -2 105 0 99 0 ct 95 0 91 -2 88 -5 ct 
85 -8 84 -12 83 -17 ct 80 -11 75 -6 69 -3 ct 63 0 57 2 50 2 ct 44 2 38 1 32 -1 ct 
26 -2 21 -5 17 -9 ct 13 -13 11 -17 11 -23 ct p
30 -23 m  30 -20 31 -17 34 -14 ct 36 -12 39 -10 42 -8 ct 45 -7 49 -6 52 -6 ct 57 -6 61 -7 66 -9 ct 
70 -11 74 -14 77 -17 ct 79 -21 81 -25 81 -30 ct 81 -52 l  74 -52 66 -51 59 -49 ct 
51 -47 44 -44 39 -40 ct 33 -36 30 -30 30 -23 ct p ef
pom
pum
300 518 t
90.0 r 218 -41 m  23 -41 l  22 -41 20 -42 19 -43 ct 18 -45 17 -46 17 -48 ct 17 -50 18 -51 19 -52 ct 
20 -54 22 -54 23 -54 ct 218 -54 l  220 -54 221 -54 222 -52 ct 223 -51 224 -50 224 -48 ct 
224 -46 223 -45 222 -43 ct 221 -42 220 -41 218 -41 ct p
218 -102 m  23 -102 l  22 -102 20 -103 19 -104 ct 18 -105 17 -107 17 -109 ct 
17 -110 18 -112 19 -113 ct 20 -115 22 -115 23 -115 ct 218 -115 l  220 -115 221 -115 222 -113 ct 
223 -112 224 -110 224 -109 ct 224 -107 223 -105 222 -104 ct 221 -103 220 -102 218 -102 ct 
p ef
pom
pum
300 187 t
90.0 r 54 -8 m  54 -20 55 -31 57 -42 ct 59 -53 62 -64 66 -75 ct 70 -86 75 -97 81 -107 ct 
86 -117 92 -127 99 -136 ct 127 -176 l  92 -176 l  55 -176 36 -176 34 -175 ct 
32 -171 29 -162 27 -146 ct 18 -146 l  28 -212 l  37 -212 l  37 -211 l  37 -207 43 -205 56 -204 ct 
69 -203 81 -202 94 -202 ct 152 -202 l  152 -194 l  152 -194 152 -193 152 -193 ct 
152 -193 152 -193 151 -193 ct 109 -132 l  98 -117 91 -99 89 -80 ct 86 -61 85 -37 85 -8 ct 
85 -4 83 -1 80 2 ct 77 5 74 7 70 7 ct 65 7 62 5 59 2 ct 56 -1 54 -4 54 -8 ct p ef
pom
gr
gr
gr
gr
gs
0 0 m 19658 0 l 19658 25939 l 0 25939 l 0 0 l eoclip newpath
gr
gr
0 25940 t 
pom
count op_count sub {pop} repeat countdictstack dict_count sub {end} repeat b4_inc_state restore
%%PageTrailer
%%Trailer
%%EOF
