<?xml version="1.0" encoding="UTF-8" standalone="no"?>
<!-- Created with Inkscape (http://www.inkscape.org/) -->

<svg
   xmlns:ns2="http://ns.adobe.com/Extensibility/1.0/"
   xmlns:ns1="http://ns.adobe.com/Flows/1.0/"
   xmlns:i="http://ns.adobe.com/AdobeIllustrator/10.0/"
   xmlns:dc="http://purl.org/dc/elements/1.1/"
   xmlns:cc="http://creativecommons.org/ns#"
   xmlns:rdf="http://www.w3.org/1999/02/22-rdf-syntax-ns#"
   xmlns:svg="http://www.w3.org/2000/svg"
   xmlns="http://www.w3.org/2000/svg"
   xmlns:xlink="http://www.w3.org/1999/xlink"
   xmlns:sodipodi="http://sodipodi.sourceforge.net/DTD/sodipodi-0.dtd"
   xmlns:inkscape="http://www.inkscape.org/namespaces/inkscape"
   width="744.09448819"
   height="1052.3622047"
   id="svg2"
   inkscape:label="Pozadí"
   version="1.1"
   inkscape:version="0.48.2 r9819"
   sodipodi:docname="level1-source.svg">
  <defs
     id="defs3" />
  <sodipodi:namedview
     id="base"
     pagecolor="#ffffff"
     bordercolor="#666666"
     borderopacity="1.0"
     inkscape:pageopacity="0.0"
     inkscape:pageshadow="2"
     inkscape:zoom="1.8276553"
     inkscape:cx="385.00585"
     inkscape:cy="814.97761"
     inkscape:document-units="mm"
     inkscape:current-layer="layer1"
     showgrid="true"
     showguides="true"
     inkscape:snap-global="false"
     inkscape:window-width="1440"
     inkscape:window-height="838"
     inkscape:window-x="-8"
     inkscape:window-y="-8"
     inkscape:window-maximized="1">
    <inkscape:grid
       type="xygrid"
       id="grid2984"
       empspacing="5"
       visible="true"
       enabled="true"
       snapvisiblegridlinesonly="true"
       units="mm"
       spacingx="2mm"
       spacingy="2mm"
       dotted="true" />
  </sodipodi:namedview>
  <metadata
     id="metadata6">
    <rdf:RDF>
      <cc:Work
         rdf:about="">
        <dc:format>image/svg+xml</dc:format>
        <dc:type
           rdf:resource="http://purl.org/dc/dcmitype/StillImage" />
        <dc:title></dc:title>
      </cc:Work>
    </rdf:RDF>
  </metadata>
  <g
     inkscape:label="Vrstva 1"
     inkscape:groupmode="layer"
     id="layer1">
    <path
       style="fill:#0000ff;fill-opacity:0.19607843;stroke:none"
       d="m 283.46456,131.10234 212.59843,212.59842 0,-212.59842 z"
       id="path3814"
       inkscape:connector-curvature="0" />
    <rect
       style="fill:none;stroke:#000000;stroke-width:1.25;stroke-miterlimit:4;stroke-opacity:1;stroke-dasharray:none"
       id="rect2996"
       width="212.59842"
       height="212.59842"
       x="283.46457"
       y="131.10234" />
    <rect
       style="fill:none;stroke:#000000;stroke-width:0.625;stroke-miterlimit:4;stroke-opacity:1;stroke-dasharray:none"
       id="rect3766"
       width="35.433071"
       height="35.433071"
       x="283.46457"
       y="131.10234" />
    <rect
       y="131.10234"
       x="318.89764"
       height="35.433071"
       width="35.433071"
       id="rect3768"
       style="fill:none;stroke:#000000;stroke-width:0.625;stroke-miterlimit:4;stroke-opacity:1;stroke-dasharray:none" />
    <rect
       style="fill:none;stroke:#000000;stroke-width:0.625;stroke-miterlimit:4;stroke-opacity:1;stroke-dasharray:none"
       id="rect3770"
       width="35.433071"
       height="35.433071"
       x="354.33072"
       y="131.10234" />
    <rect
       y="131.10234"
       x="389.76379"
       height="35.433071"
       width="35.433071"
       id="rect3772"
       style="fill:none;stroke:#000000;stroke-width:0.625;stroke-miterlimit:4;stroke-opacity:1;stroke-dasharray:none" />
    <rect
       style="fill:none;stroke:#000000;stroke-width:0.625;stroke-miterlimit:4;stroke-opacity:1;stroke-dasharray:none"
       id="rect3774"
       width="35.433071"
       height="35.433071"
       x="425.19684"
       y="131.10234" />
    <rect
       y="131.10234"
       x="460.62991"
       height="35.433071"
       width="35.433071"
       id="rect3776"
       style="fill:none;stroke:#000000;stroke-width:0.625;stroke-miterlimit:4;stroke-opacity:1;stroke-dasharray:none" />
    <rect
       style="fill:none;stroke:#000000;stroke-width:0.625;stroke-miterlimit:4;stroke-opacity:1;stroke-dasharray:none"
       id="rect3778"
       width="35.433071"
       height="35.433071"
       x="318.89764"
       y="166.53542" />
    <rect
       y="166.53542"
       x="354.33072"
       height="35.433071"
       width="35.433071"
       id="rect3780"
       style="fill:none;stroke:#000000;stroke-width:0.625;stroke-miterlimit:4;stroke-opacity:1;stroke-dasharray:none" />
    <rect
       style="fill:none;stroke:#000000;stroke-width:0.625;stroke-miterlimit:4;stroke-opacity:1;stroke-dasharray:none"
       id="rect3782"
       width="35.433071"
       height="35.433071"
       x="389.76379"
       y="166.53542" />
    <rect
       y="166.53542"
       x="425.19684"
       height="35.433071"
       width="35.433071"
       id="rect3784"
       style="fill:none;stroke:#000000;stroke-width:0.625;stroke-miterlimit:4;stroke-opacity:1;stroke-dasharray:none" />
    <rect
       style="fill:none;stroke:#000000;stroke-width:0.625;stroke-miterlimit:4;stroke-opacity:1;stroke-dasharray:none"
       id="rect3786"
       width="35.433071"
       height="35.433071"
       x="460.62991"
       y="166.53542" />
    <rect
       style="fill:none;stroke:#000000;stroke-width:0.625;stroke-miterlimit:4;stroke-opacity:1;stroke-dasharray:none"
       id="rect3788"
       width="35.433071"
       height="35.433071"
       x="354.33072"
       y="201.96849" />
    <rect
       y="201.96849"
       x="389.76379"
       height="35.433071"
       width="35.433071"
       id="rect3790"
       style="fill:none;stroke:#000000;stroke-width:0.625;stroke-miterlimit:4;stroke-opacity:1;stroke-dasharray:none" />
    <rect
       style="fill:none;stroke:#000000;stroke-width:0.625;stroke-miterlimit:4;stroke-opacity:1;stroke-dasharray:none"
       id="rect3792"
       width="35.433071"
       height="35.433071"
       x="425.19684"
       y="201.96849" />
    <rect
       y="201.96849"
       x="460.62991"
       height="35.433071"
       width="35.433071"
       id="rect3794"
       style="fill:none;stroke:#000000;stroke-width:0.625;stroke-miterlimit:4;stroke-opacity:1;stroke-dasharray:none" />
    <rect
       style="fill:none;stroke:#000000;stroke-width:0.625;stroke-miterlimit:4;stroke-opacity:1;stroke-dasharray:none"
       id="rect3796"
       width="35.433071"
       height="35.433071"
       x="389.76379"
       y="237.40157" />
    <rect
       y="237.40157"
       x="425.19684"
       height="35.433071"
       width="35.433071"
       id="rect3798"
       style="fill:none;stroke:#000000;stroke-width:0.625;stroke-miterlimit:4;stroke-opacity:1;stroke-dasharray:none" />
    <rect
       style="fill:none;stroke:#000000;stroke-width:0.625;stroke-miterlimit:4;stroke-opacity:1;stroke-dasharray:none"
       id="rect3800"
       width="35.433071"
       height="35.433071"
       x="460.62991"
       y="237.40157" />
    <rect
       style="fill:none;stroke:#000000;stroke-width:0.625;stroke-miterlimit:4;stroke-opacity:1;stroke-dasharray:none"
       id="rect3802"
       width="35.433071"
       height="35.433071"
       x="425.19684"
       y="272.83463" />
    <rect
       y="272.83463"
       x="460.62991"
       height="35.433071"
       width="35.433071"
       id="rect3804"
       style="fill:none;stroke:#000000;stroke-width:0.625;stroke-miterlimit:4;stroke-opacity:1;stroke-dasharray:none" />
    <rect
       y="272.83463"
       x="425.19684"
       height="35.433071"
       width="35.433071"
       id="rect3806"
       style="fill:none;stroke:#000000;stroke-width:0.625;stroke-miterlimit:4;stroke-opacity:1;stroke-dasharray:none" />
    <rect
       style="fill:none;stroke:#000000;stroke-width:0.625;stroke-miterlimit:4;stroke-opacity:1;stroke-dasharray:none"
       id="rect3808"
       width="35.433071"
       height="35.433071"
       x="460.62991"
       y="272.83463" />
    <rect
       y="308.2677"
       x="460.62991"
       height="35.433071"
       width="35.433071"
       id="rect3810"
       style="fill:none;stroke:#000000;stroke-width:0.625;stroke-miterlimit:4;stroke-opacity:1;stroke-dasharray:none" />
    <g
       id="g3908"
       transform="translate(212.59842,70.866144)">
      <text
         sodipodi:linespacing="125%"
         id="text3820"
         y="81.838722"
         x="85.558754"
         style="font-size:11px;font-style:normal;font-weight:normal;line-height:125%;letter-spacing:0px;word-spacing:0px;fill:#000000;fill-opacity:1;stroke:none;font-family:Bitstream Vera Sans"
         xml:space="preserve"><tspan
           y="81.838722"
           x="85.558754"
           id="tspan3822"
           sodipodi:role="line">0</tspan></text>
      <text
         sodipodi:linespacing="125%"
         id="text3824"
         y="81.905861"
         x="121.3678"
         style="font-size:11px;font-style:normal;font-weight:normal;line-height:125%;letter-spacing:0px;word-spacing:0px;fill:#000000;fill-opacity:1;stroke:none;font-family:Bitstream Vera Sans"
         xml:space="preserve"><tspan
           y="81.905861"
           x="121.3678"
           id="tspan3826"
           sodipodi:role="line">1</tspan></text>
      <text
         sodipodi:linespacing="125%"
         id="text3828"
         y="81.905861"
         x="156.51889"
         style="font-size:11px;font-style:normal;font-weight:normal;line-height:125%;letter-spacing:0px;word-spacing:0px;fill:#000000;fill-opacity:1;stroke:none;font-family:Bitstream Vera Sans"
         xml:space="preserve"><tspan
           y="81.905861"
           x="156.51889"
           id="tspan3830"
           sodipodi:role="line">2</tspan></text>
      <text
         sodipodi:linespacing="125%"
         id="text3832"
         y="81.836037"
         x="191.84186"
         style="font-size:11px;font-style:normal;font-weight:normal;line-height:125%;letter-spacing:0px;word-spacing:0px;fill:#000000;fill-opacity:1;stroke:none;font-family:Bitstream Vera Sans"
         xml:space="preserve"><tspan
           y="81.836037"
           x="191.84186"
           id="tspan3834"
           sodipodi:role="line">3</tspan></text>
      <text
         sodipodi:linespacing="125%"
         id="text3836"
         y="81.889748"
         x="227.45216"
         style="font-size:11px;font-style:normal;font-weight:normal;line-height:125%;letter-spacing:0px;word-spacing:0px;fill:#000000;fill-opacity:1;stroke:none;font-family:Bitstream Vera Sans"
         xml:space="preserve"><tspan
           y="81.889748"
           x="227.45216"
           id="tspan3838"
           sodipodi:role="line">4</tspan></text>
      <text
         sodipodi:linespacing="125%"
         id="text3840"
         y="81.768898"
         x="262.68112"
         style="font-size:11px;font-style:normal;font-weight:normal;line-height:125%;letter-spacing:0px;word-spacing:0px;fill:#000000;fill-opacity:1;stroke:none;font-family:Bitstream Vera Sans"
         xml:space="preserve"><tspan
           y="81.768898"
           x="262.68112"
           id="tspan3842"
           sodipodi:role="line">5</tspan></text>
      <text
         sodipodi:linespacing="125%"
         id="text3844"
         y="117.27179"
         x="121.00256"
         style="font-size:11px;font-style:normal;font-weight:normal;line-height:125%;letter-spacing:0px;word-spacing:0px;fill:#000000;fill-opacity:1;stroke:none;font-family:Bitstream Vera Sans"
         xml:space="preserve"><tspan
           y="117.27179"
           x="121.00256"
           id="tspan3846"
           sodipodi:role="line">6</tspan></text>
      <text
         sodipodi:linespacing="125%"
         id="text3848"
         y="117.27179"
         x="156.37924"
         style="font-size:11px;font-style:normal;font-weight:normal;line-height:125%;letter-spacing:0px;word-spacing:0px;fill:#000000;fill-opacity:1;stroke:none;font-family:Bitstream Vera Sans"
         xml:space="preserve"><tspan
           y="117.27179"
           x="156.37924"
           id="tspan3850"
           sodipodi:role="line">7</tspan></text>
      <text
         sodipodi:linespacing="125%"
         id="text3852"
         y="117.27179"
         x="191.84186"
         style="font-size:11px;font-style:normal;font-weight:normal;line-height:125%;letter-spacing:0px;word-spacing:0px;fill:#000000;fill-opacity:1;stroke:none;font-family:Bitstream Vera Sans"
         xml:space="preserve"><tspan
           y="117.27179"
           x="191.84186"
           id="tspan3854"
           sodipodi:role="line">8</tspan></text>
      <text
         sodipodi:linespacing="125%"
         id="text3856"
         y="117.27179"
         x="227.26955"
         style="font-size:11px;font-style:normal;font-weight:normal;line-height:125%;letter-spacing:0px;word-spacing:0px;fill:#000000;fill-opacity:1;stroke:none;font-family:Bitstream Vera Sans"
         xml:space="preserve"><tspan
           y="117.27179"
           x="227.26955"
           id="tspan3858"
           sodipodi:role="line">9</tspan></text>
      <text
         sodipodi:linespacing="125%"
         id="text3860"
         y="117.27179"
         x="259.29196"
         style="font-size:11px;font-style:normal;font-weight:normal;line-height:125%;letter-spacing:0px;word-spacing:0px;fill:#000000;fill-opacity:1;stroke:none;font-family:Bitstream Vera Sans"
         xml:space="preserve"><tspan
           y="117.27179"
           x="259.29196"
           id="tspan3862"
           sodipodi:role="line">10</tspan></text>
      <text
         sodipodi:linespacing="125%"
         id="text3864"
         y="152.772"
         x="153.73935"
         style="font-size:11px;font-style:normal;font-weight:normal;line-height:125%;letter-spacing:0px;word-spacing:0px;fill:#000000;fill-opacity:1;stroke:none;font-family:Bitstream Vera Sans"
         xml:space="preserve"><tspan
           y="152.772"
           x="153.73935"
           id="tspan3866"
           sodipodi:role="line">11</tspan></text>
      <text
         sodipodi:linespacing="125%"
         id="text3868"
         y="152.772"
         x="188.4527"
         style="font-size:11px;font-style:normal;font-weight:normal;line-height:125%;letter-spacing:0px;word-spacing:0px;fill:#000000;fill-opacity:1;stroke:none;font-family:Bitstream Vera Sans"
         xml:space="preserve"><tspan
           y="152.772"
           x="188.4527"
           id="tspan3870"
           sodipodi:role="line">12</tspan></text>
      <text
         sodipodi:linespacing="125%"
         id="text3872"
         y="152.70218"
         x="223.84547"
         style="font-size:11px;font-style:normal;font-weight:normal;line-height:125%;letter-spacing:0px;word-spacing:0px;fill:#000000;fill-opacity:1;stroke:none;font-family:Bitstream Vera Sans"
         xml:space="preserve"><tspan
           y="152.70218"
           x="223.84547"
           id="tspan3874"
           sodipodi:role="line">13</tspan></text>
      <text
         sodipodi:linespacing="125%"
         id="text3876"
         y="152.772"
         x="259.29465"
         style="font-size:11px;font-style:normal;font-weight:normal;line-height:125%;letter-spacing:0px;word-spacing:0px;fill:#000000;fill-opacity:1;stroke:none;font-family:Bitstream Vera Sans"
         xml:space="preserve"><tspan
           y="152.772"
           x="259.29465"
           id="tspan3878"
           sodipodi:role="line">14</tspan></text>
      <text
         sodipodi:linespacing="125%"
         id="text3884"
         y="188.13794"
         x="188.38287"
         style="font-size:11px;font-style:normal;font-weight:normal;line-height:125%;letter-spacing:0px;word-spacing:0px;fill:#000000;fill-opacity:1;stroke:none;font-family:Bitstream Vera Sans"
         xml:space="preserve"><tspan
           y="188.13794"
           x="188.38287"
           id="tspan3886"
           sodipodi:role="line">15</tspan></text>
      <text
         sodipodi:linespacing="125%"
         id="text3888"
         y="188.13794"
         x="223.84816"
         style="font-size:11px;font-style:normal;font-weight:normal;line-height:125%;letter-spacing:0px;word-spacing:0px;fill:#000000;fill-opacity:1;stroke:none;font-family:Bitstream Vera Sans"
         xml:space="preserve"><tspan
           y="188.13794"
           x="223.84816"
           id="tspan3890"
           sodipodi:role="line">16</tspan></text>
      <text
         sodipodi:linespacing="125%"
         id="text3892"
         y="188.20508"
         x="259.27853"
         style="font-size:11px;font-style:normal;font-weight:normal;line-height:125%;letter-spacing:0px;word-spacing:0px;fill:#000000;fill-opacity:1;stroke:none;font-family:Bitstream Vera Sans"
         xml:space="preserve"><tspan
           y="188.20508"
           x="259.27853"
           id="tspan3894"
           sodipodi:role="line">17</tspan></text>
      <text
         sodipodi:linespacing="125%"
         id="text3896"
         y="223.571"
         x="223.83742"
         style="font-size:11px;font-style:normal;font-weight:normal;line-height:125%;letter-spacing:0px;word-spacing:0px;fill:#000000;fill-opacity:1;stroke:none;font-family:Bitstream Vera Sans"
         xml:space="preserve"><tspan
           y="223.571"
           x="223.83742"
           id="tspan3898"
           sodipodi:role="line">18</tspan></text>
      <text
         sodipodi:linespacing="125%"
         id="text3900"
         y="223.571"
         x="259.27048"
         style="font-size:11px;font-style:normal;font-weight:normal;line-height:125%;letter-spacing:0px;word-spacing:0px;fill:#000000;fill-opacity:1;stroke:none;font-family:Bitstream Vera Sans"
         xml:space="preserve"><tspan
           y="223.571"
           x="259.27048"
           id="tspan3902"
           sodipodi:role="line">19</tspan></text>
      <text
         sodipodi:linespacing="125%"
         id="text3904"
         y="259.00406"
         x="259.72971"
         style="font-size:11px;font-style:normal;font-weight:normal;line-height:125%;letter-spacing:0px;word-spacing:0px;fill:#000000;fill-opacity:1;stroke:none;font-family:Bitstream Vera Sans"
         xml:space="preserve"><tspan
           y="259.00406"
           x="259.72971"
           id="tspan3906"
           sodipodi:role="line">20</tspan></text>
    </g>
    <g
       transform="matrix(0,-0.27189011,-1.2807134,0,496.06298,123.91975)"
       i:rgbTrio="#4F008000FFFF"
       i:dimmedPercent="3"
       i:layer="yes"
       id="image">
      <switch
         style="display:none"
         id="switch7"
         display="none"
         i:objectType="pointText"
         i:objectNS="http://ns.adobe.com/Flows/1.0/">
        <foreignObject
           id="foreignObject9"
           overflow="visible"
           display="inline"
           height="1"
           width="1"
           y="0"
           x="0"
           requiredExtensions="http://ns.adobe.com/Flows/1.0/">
          <ns1:flowDef>
            <ns1:region
               textMatrix="1 0 0 1 0 0">
              <ns1:path
                 d="M-37.6,148.4" />
            </ns1:region>
            <ns1:flow
               font-size="200"
               font-family="'LetterGothicStd'">
              <ns1:p>
                <ns1:span>}</ns1:span>
              </ns1:p>
              <ns1:p />
            </ns1:flow>
          </ns1:flowDef>
          <ns2:targetRef
             xlink:href="#XMLID_1_" />
        </foreignObject>
        <text
           style="display:inline"
           display="inline"
           transform="translate(-37.6001,148.4004)"
           id="XMLID_1_">
          <tspan
             style="font-size:200px;font-family:LetterGothicStd"
             id="tspan12"
             font-size="200"
             y="0"
             x="0">}</tspan>
        </text>
      </switch>
      <g
         i:knockout="Off"
         id="raster">
        <path
           inkscape:connector-curvature="0"
           id="path15"
           d="M 19.8,25.8 C 19.8,11.2 15.6,2.2 0,0.4 L 0.4,0 C 23,0.4 29.2,7.2 29.2,29 l 0,30.2 c 0,13.4 1.4,19.8 16,23.4 l 0,0.4 c -14.4,3.6 -16,10 -16,23.2 l 0,32.2 c 0,21 -7.8,27 -28.8,27.6 L 0,165.601 c 16,-2.4 19.8,-10.4 19.8,-25.601 l 0,-32.2 C 19.8,94.2 21.6,86.4 36.6,83 l 0,-0.4 C 21.4,79 19.8,70.6 19.8,57 l 0,-31.2 z"
           i:knockout="Off" />
      </g>
    </g>
    <g
       id="g3983"
       i:layer="yes"
       i:dimmedPercent="3"
       i:rgbTrio="#4F008000FFFF"
       transform="matrix(-0.27189011,0,0,1.2807134,275.75336,131.10234)">
      <switch
         i:objectNS="http://ns.adobe.com/Flows/1.0/"
         i:objectType="pointText"
         display="none"
         id="switch3985"
         style="display:none">
        <foreignObject
           requiredExtensions="http://ns.adobe.com/Flows/1.0/"
           x="0"
           y="0"
           width="1"
           height="1"
           display="inline"
           overflow="visible"
           id="foreignObject3987">
          <ns1:flowDef>
            <ns1:region
               textMatrix="1 0 0 1 0 0">
              <ns1:path
                 d="M-37.6,148.4" />
            </ns1:region>
            <ns1:flow
               font-family="'LetterGothicStd'"
               font-size="200">
              <ns1:p>
                <ns1:span>}</ns1:span>
              </ns1:p>
              <ns1:p />
            </ns1:flow>
          </ns1:flowDef>
          <ns2:targetRef
             xlink:href="#XMLID_1_" />
        </foreignObject>
        <text
           id="text3989"
           transform="translate(-37.6001,148.4004)"
           display="inline"
           style="display:inline">
          <tspan
             x="0"
             y="0"
             font-size="200"
             id="tspan3991"
             style="font-size:200px;font-family:LetterGothicStd">}</tspan>
        </text>
      </switch>
      <g
         id="g3993"
         i:knockout="Off">
        <path
           i:knockout="Off"
           d="M 19.8,25.8 C 19.8,11.2 15.6,2.2 0,0.4 L 0.4,0 C 23,0.4 29.2,7.2 29.2,29 l 0,30.2 c 0,13.4 1.4,19.8 16,23.4 l 0,0.4 c -14.4,3.6 -16,10 -16,23.2 l 0,32.2 c 0,21 -7.8,27 -28.8,27.6 L 0,165.601 c 16,-2.4 19.8,-10.4 19.8,-25.601 l 0,-32.2 C 19.8,94.2 21.6,86.4 36.6,83 l 0,-0.4 C 21.4,79 19.8,70.6 19.8,57 l 0,-31.2 z"
           id="path3995"
           inkscape:connector-curvature="0" />
      </g>
    </g>
    <text
       xml:space="preserve"
       style="font-size:11px;font-style:normal;font-weight:normal;text-align:end;line-height:125%;letter-spacing:0px;word-spacing:0px;text-anchor:end;fill:#000000;fill-opacity:1;stroke:none;font-family:Bitstream Vera Sans"
       x="257.42087"
       y="241.79079"
       id="text3997"
       sodipodi:linespacing="125%"><tspan
         sodipodi:role="line"
         x="257.42087"
         y="241.79079"
         id="tspan4017">$\melonel H\bigr\rVert$</tspan></text>
    <text
       sodipodi:linespacing="125%"
       id="text4013"
       y="101.09651"
       x="389.82822"
       style="font-size:11px;font-style:normal;font-weight:normal;text-align:center;line-height:125%;letter-spacing:0px;word-spacing:0px;text-anchor:middle;fill:#000000;fill-opacity:1;stroke:none;font-family:Bitstream Vera Sans"
       xml:space="preserve"><tspan
         y="101.09651"
         x="389.82822"
         id="tspan4015"
         sodipodi:role="line">$\bigl\lVert H\meloner$</tspan></text>
    <g
       transform="matrix(0,0.27189011,-0.21345223,0,496.06298,349.69663)"
       i:rgbTrio="#4F008000FFFF"
       i:dimmedPercent="3"
       i:layer="yes"
       id="image-1">
      <switch
         style="display:none"
         id="switch7-7"
         display="none"
         i:objectType="pointText"
         i:objectNS="http://ns.adobe.com/Flows/1.0/">
        <foreignObject
           id="foreignObject9-4"
           overflow="visible"
           display="inline"
           height="1"
           width="1"
           y="0"
           x="0"
           requiredExtensions="http://ns.adobe.com/Flows/1.0/">
          <ns1:flowDef>
            <ns1:region
               textMatrix="1 0 0 1 0 0">
              <ns1:path
                 d="M-37.6,148.4" />
            </ns1:region>
            <ns1:flow
               font-size="200"
               font-family="'LetterGothicStd'">
              <ns1:p>
                <ns1:span>}</ns1:span>
              </ns1:p>
              <ns1:p />
            </ns1:flow>
          </ns1:flowDef>
          <ns2:targetRef
             xlink:href="#XMLID_1_-0" />
        </foreignObject>
        <text
           style="display:inline"
           display="inline"
           transform="translate(-37.6001,148.4004)"
           id="XMLID_1_-0">
          <tspan
             style="font-size:200px;font-family:LetterGothicStd"
             id="tspan12-9"
             font-size="200"
             y="0"
             x="0">}</tspan>
        </text>
      </switch>
      <g
         i:knockout="Off"
         id="raster-4">
        <path
           inkscape:connector-curvature="0"
           id="path15-8"
           d="M 19.8,25.8 C 19.8,11.2 15.6,2.2 0,0.4 L 0.4,0 C 23,0.4 29.2,7.2 29.2,29 l 0,30.2 c 0,13.4 1.4,19.8 16,23.4 l 0,0.4 c -14.4,3.6 -16,10 -16,23.2 l 0,32.2 c 0,21 -7.8,27 -28.8,27.6 L 0,165.601 c 16,-2.4 19.8,-10.4 19.8,-25.601 l 0,-32.2 C 19.8,94.2 21.6,86.4 36.6,83 l 0,-0.4 C 21.4,79 19.8,70.6 19.8,57 l 0,-31.2 z"
           i:knockout="Off" />
      </g>
    </g>
    <g
       id="g3089"
       i:layer="yes"
       i:dimmedPercent="3"
       i:rgbTrio="#4F008000FFFF"
       transform="matrix(0.27189011,0,0,0.21345223,503.93638,308.2677)">
      <switch
         i:objectNS="http://ns.adobe.com/Flows/1.0/"
         i:objectType="pointText"
         display="none"
         id="switch3091"
         style="display:none">
        <foreignObject
           requiredExtensions="http://ns.adobe.com/Flows/1.0/"
           x="0"
           y="0"
           width="1"
           height="1"
           display="inline"
           overflow="visible"
           id="foreignObject3093">
          <ns1:flowDef>
            <ns1:region
               textMatrix="1 0 0 1 0 0">
              <ns1:path
                 d="M-37.6,148.4" />
            </ns1:region>
            <ns1:flow
               font-family="'LetterGothicStd'"
               font-size="200">
              <ns1:p>
                <ns1:span>}</ns1:span>
              </ns1:p>
              <ns1:p />
            </ns1:flow>
          </ns1:flowDef>
          <ns2:targetRef
             xlink:href="#XMLID_1_-0" />
        </foreignObject>
        <text
           id="text3095"
           transform="translate(-37.6001,148.4004)"
           display="inline"
           style="display:inline">
          <tspan
             x="0"
             y="0"
             font-size="200"
             id="tspan3097"
             style="font-size:200px;font-family:LetterGothicStd">}</tspan>
        </text>
      </switch>
      <g
         id="g3099"
         i:knockout="Off">
        <path
           i:knockout="Off"
           d="M 19.8,25.8 C 19.8,11.2 15.6,2.2 0,0.4 L 0.4,0 C 23,0.4 29.2,7.2 29.2,29 l 0,30.2 c 0,13.4 1.4,19.8 16,23.4 l 0,0.4 c -14.4,3.6 -16,10 -16,23.2 l 0,32.2 c 0,21 -7.8,27 -28.8,27.6 L 0,165.601 c 16,-2.4 19.8,-10.4 19.8,-25.601 l 0,-32.2 C 19.8,94.2 21.6,86.4 36.6,83 l 0,-0.4 C 21.4,79 19.8,70.6 19.8,57 l 0,-31.2 z"
           id="path3101"
           inkscape:connector-curvature="0" />
      </g>
    </g>
    <text
       sodipodi:linespacing="125%"
       id="text3116"
       y="329.88181"
       x="520.79541"
       style="font-size:11px;font-style:normal;font-weight:normal;text-align:start;line-height:125%;letter-spacing:0px;word-spacing:0px;text-anchor:start;fill:#000000;fill-opacity:1;stroke:none;font-family:Bitstream Vera Sans"
       xml:space="preserve"><tspan
         id="tspan3120"
         y="329.88181"
         x="520.79541"
         sodipodi:role="line">$\meltwol H\bigr\rVert$</tspan></text>
    <text
       xml:space="preserve"
       style="font-size:11px;font-style:normal;font-weight:normal;text-align:center;line-height:125%;letter-spacing:0px;word-spacing:0px;text-anchor:middle;fill:#000000;fill-opacity:1;stroke:none;font-family:Bitstream Vera Sans"
       x="478.41089"
       y="376.31253"
       id="text3134"
       sodipodi:linespacing="125%"><tspan
         sodipodi:role="line"
         id="tspan3136"
         x="478.41089"
         y="376.31253">$\bigl\lVert H\meltwor$</tspan></text>
  </g>
</svg>
